INDEX VERSION 1.130+C:\Users\localadmin\OneDrive\Desktop\E-commerce\.metadata\.plugins\org.eclipse.jdt.core
2381342053.index
2693086422.index
2303621563.index
839023071.index
3121174920.index
3232039117.index
1182351618.index
1576079406.index
3568016227.index
1650542822.index
597999341.index
3713942578.index
2558798592.index
4220063690.index
1416575990.index
2533741087.index
1275847889.index
2932646667.index
3338354504.index
248550814.index
2161297804.index
4234849034.index
96353539.index
3183357423.index
1540251649.index
1367770013.index
2006708872.index
1752131540.index
2215203977.index
892441961.index
2228888787.index
2988741170.index
2018390229.index
3840046477.index
417542968.index
166207965.index
1037523705.index
2456089717.index
3593023006.index
2286064684.index
756427181.index
3744412062.index
1259157398.index
4272217411.index
4222167442.index
3031880855.index
3310363.index
2338565033.index
2328428522.index
545174030.index
1465368637.index
352409503.index
1873387080.index
1061190338.index
880597504.index
4066251852.index
1093616003.index
4171979429.index
1028882612.index
918242633.index
3732676554.index
3073057511.index
3267924375.index
3073087735.index
3413908911.index
454987864.index
4053995841.index
1690861704.index
4010176726.index
1512712046.index
1383399549.index
797741743.index
4007610567.index
4001365319.index
2260846095.index
230295678.index
2115420179.index
1748964058.index
3188808904.index
3700369760.index
2121526998.index
3014442027.index
3982971115.index
2287074306.index
4230328546.index
83969985.index
558654481.index
34329675.index
696334447.index
3916286880.index
2166360768.index
309296196.index
2896391354.index
1766749453.index
2150027450.index
2332461122.index
667595648.index
3771236372.index
717673806.index
2099795063.index
1705731442.index
1889973711.index
239615587.index
2886286929.index
3873982776.index
3684820612.index
136885104.index
337886805.index
2206496351.index
3211511372.index
299521229.index
3368745655.index
3491907133.index
4143360848.index
1173596979.index
147137995.index
937105981.index
1833510600.index
2277679933.index
72847613.index
3533020849.index
1876829125.index
3430557912.index
4048616502.index
1813055295.index
1392664983.index
2510769413.index
248926017.index
3185084350.index
203860981.index
1483337256.index
